-------------------------------------------------------------------------------
Test set: ru.mirea.weather.LoggerTest
-------------------------------------------------------------------------------
Tests run: 1, Failures: 0, Errors: 0, Skipped: 0, Time elapsed: 1.235 sec
